{
  "BACKGROUND_COLOR": "#202225",
  "IS_MAXIMIZED": false,
  "IS_MINIMIZED": false,
  "WINDOW_BOUNDS": {
    "x": 0,
    "y": 24,
    "width": 1536,
    "height": 815
  },
  "SKIP_HOST_UPDATE": true,
  "OPEN_ON_STARTUP": false,
  "MINIMIZE_TO_TRAY": false
}