{
    "files.exclude": {
        "**/._*": true,
        "**/.classpath": true,
        "**/.factorypath": true,
        "**/.project": true,
        "**/.settings": true,
    },
    "editor.rulers": [
        80,
        120
    ],
    "breadcrumbs.enabled": true,
    "git.autofetch": true,
    "git.confirmSync": false,
    "git.enableSmartCommit": true,
    "workbench.editor.showTabs": "multiple",
    "javascript.updateImportsOnFileMove.enabled": "always",
    "telemetry.telemetryLevel": "off",
    "workbench.startupEditor": "newUntitledFile",
    "files.autoSave": "onFocusChange",
    "editor.suggestSelection": "first",
    "liveServer.settings.donotShowInfoMsg": true,
    "liveServer.settings.port": 8000,
    "eslint.packageManager": "yarn",
    "editor.fontFamily": "'Jetbrains Mono', 'Fira Code', 'Droid Sans Mono', 'monospace', monospace, 'Droid Sans Fallback', Noto Sans, 'sitelen seli kiwen juniko'",
    "window.title": "${appName}",
    "editor.minimap.renderCharacters": false,
    "editor.fontLigatures": true,
    "todo-tree.filtering.excludeGlobs": [
        ".rustup/**"
    ],
    "todo-tree.highlights.enabled": true,
    "diffEditor.ignoreTrimWhitespace": false,
    "gitlens.hovers.currentLine.over": "line",
    "vim.easymotion": true,
    "vim.leader": ",",
    "vim.sneak": true,
    "vim.useSystemClipboard": true,
    "todo-tree.tree.showScanModeButton": false,
    "rust-client.autoStartRls": false,
    "rust-client.engine": "rust-analyzer",
    "FSharp.useSdkScripts": true,
    "npm.packageManager": "yarn",
    "typescript.updateImportsOnFileMove.enabled": "always",
    "C_Cpp.clang_format_fallbackStyle": "{ BasedOnStyle: LLVM, UseTab: Never, IndentWidth: 4, TabWidth: 4, BreakBeforeBraces: Attach, AllowShortIfStatementsOnASingleLine: false, IndentCaseLabels: true, ColumnLimit: 0, AccessModifierOffset: -4 }",
    "C_Cpp.default.cppStandard": "c++23",
    "cmake.configureOnOpen": true,
    "latex-workshop.message.update.show": false,
    "latex-workshop.view.pdf.viewer": "tab",
    "gitlens.codeLens.enabled": false,
    "gitlens.statusBar.enabled": false,
    "workbench.iconTheme": "vs-seti",
    "csharp.semanticHighlighting.enabled": true,
    "C_Cpp.default.cStandard": "c17",
    "zigLanguageClient.path": "/home/gis/bin/zls",
    "terminal.integrated.commandsToSkipShell": [
        "language-julia.interrupt"
    ],
    "workbench.editorAssociations": {
        "*.ipynb": "jupyter-notebook"
    },
    "python.linting.mypyEnabled": true,
    "files.watcherExclude": {
        "**/target/**": true,
        "**/dist/**": true,
        "**/.parcel-cache/**": true,
    },
    "notebook.cellToolbarLocation": {
        "default": "right",
        "jupyter-notebook": "left"
    },
    "editor.semanticHighlighting.enabled": true,
    "redhat.telemetry.enabled": false,
    "editor.inlayHints.fontSize": 10,
    "editor.codeLensFontSize": 10,
    "editor.acceptSuggestionOnEnter": "smart",
    "typescript.inlayHints.variableTypes.enabled": true,
    "editor.codeActionsOnSave": {
        "source.organizeImports": "explicit"
    },
    "editor.formatOnSave": true,
    "workbench.localHistory.enabled": false,
    "window.menuBarVisibility": "toggle",
    "workbench.colorTheme": "Solarized Dark",
    "zenMode.fullScreen": false,
    "explorer.confirmDragAndDrop": false,
    "julia.symbolCacheDownload": true,
    "npm.keybindingsChangedWarningShown": true,
    "terminal.integrated.enablePersistentSessions": false,
    "zig.zigPath": "/home/gis/bin/zig",
    "zig.zls.enabled": true,
    "zig.zls.path": "",
    "python.formatting.provider": "black",
    "zig.path": "",
    "zig.initialSetupDone": true,
    "[python]": {
        "diffEditor.ignoreTrimWhitespace": false,
        "editor.formatOnType": true,
        "editor.wordBasedSuggestions": "off"
    },
    "python.languageServer": "Pylance",
    "python.analysis.autoImportCompletions": true,
    "workbench.productIconTheme": "fluent-icons",
    "Lua.diagnostics.globals": [
        "playdate"
    ],
}